{
 "name": "CERNOps-<%= @configs[:puppet_module].split('-').last %>",
 "version": "0.0.0",
 "author": "CERNOps",
 "summary": "Configures things ...",
 "license": "Apache-2.0",
 "source": "https://gitlab.cern.ch/ai/<%= @configs[:puppet_module] %>",
 "dependencies": [
 ],
 "operatingsystem_support": [
    {
      "operatingsystem": "RedHat",
      "operatingsystemrelease": [
        "5",
        "6",
        "7"
      ]
    },
    {
      "operatingsystem": "CentOS",
      "operatingsystemrelease": [
        "5",
        "6",
        "7"
      ]
    }
 ]
}
